{
  "project_info": {
    "project_number": "805124961898",
    "firebase_url": "https://annonceurs-6fdec-default-rtdb.europe-west1.firebasedatabase.app",
    "project_id": "annonceurs-6fdec",
    "storage_bucket": "annonceurs-6fdec.appspot.com"
  },
  "client": [
    {
      "client_info": {
        "mobilesdk_app_id": "1:805124961898:android:f3af9264c2e31f1b897c13",
        "android_client_info": {
          "package_name": "com.companyname.application_annonceurs"
        }
      },
      "oauth_client": [
        {
          "client_id": "805124961898-cohmo7hngm6l79qafg1n541bo7qqfumr.apps.googleusercontent.com",
          "client_type": 1,
          "android_info": {
            "package_name": "com.companyname.application_annonceurs",
            "certificate_hash": "bd96e49cc14e5040a53433013046537202f08815"
          }
        },
        {
          "client_id": "805124961898-g1e5an2iificomviljrqd4kfjrmrba88.apps.googleusercontent.com",
          "client_type": 3
        }
      ],
      "api_key": [
        {
          "current_key": "AIzaSyBMxzb8EjHyfAKTqGrhh-J11VqvrIkagxU"
        }
      ],
      "services": {
        "appinvite_service": {
          "other_platform_oauth_client": [
            {
              "client_id": "805124961898-g1e5an2iificomviljrqd4kfjrmrba88.apps.googleusercontent.com",
              "client_type": 3
            }
          ]
        }
      }
    }
  ],
  "configuration_version": "1"
}